\select@language {czech}
\contentsline {figure}{\numberline {1.1}{\ignorespaces Model uzlov\IeC {\'y}ch nezn\IeC {\'a}m\IeC {\'y}ch pro oh\IeC {\'y}ban\IeC {\'y} prut \cite {Jirousek2006}\relax }}{14}{figure.caption.27}
\contentsline {figure}{\numberline {1.2}{\ignorespaces Ode\IeC {\v c}\IeC {\'\i }t\IeC {\'a}n\IeC {\'\i } bod\IeC {\r u} pomoc\IeC {\'\i } WebPlotDigitizeru pro stanoven\IeC {\'\i } {$R_k$}\cite {Davis1980}\relax }}{15}{figure.caption.44}
\contentsline {figure}{\numberline {1.3}{\ignorespaces Pr\IeC {\r u}b\IeC {\v e}h odvozen\IeC {\'y}ch funkc\IeC {\'\i } pro v\IeC {\'y}po\IeC {\v c}et {$R_k$}\relax }}{17}{figure.caption.45}
