\select@language {czech}
\contentsline {chapter}{\IeC {\'U}vod}{10}{section*.6}
\contentsline {chapter}{\numberline {1}Teoretick\IeC {\'a} \IeC {\v c}\IeC {\'a}st diplomov\IeC {\'e} pr\IeC {\'a}ce}{11}{chapter.7}
\contentsline {section}{\numberline {1.1}Teorie v\IeC {\'y}po\IeC {\v c}t\IeC {\r u} pilot}{11}{section.8}
\contentsline {subsection}{\numberline {1.1.1}V\IeC {\'y}po\IeC {\v c}et piloty dle EN 1997}{11}{subsection.9}
\contentsline {subsection}{\numberline {1.1.2}V\IeC {\'y}po\IeC {\v c}tov\IeC {\'a} \IeC {\'u}nosnost pilot hlouben\IeC {\'y}ch do stla\IeC {\v c}iteln\IeC {\'e}ho podlo\IeC {\v z}\IeC {\'\i } dle Masopusta}{11}{subsection.10}
\contentsline {subsection}{\numberline {1.1.3}Prutov\IeC {\'a} teorie MKP}{14}{subsection.25}
\contentsline {subsubsection}{Euler-Bernoulliho oh\IeC {\'y}ban\IeC {\'y} prut}{14}{section*.26}
\contentsline {section}{\numberline {1.2}Program}{15}{section.37}
\contentsline {subsection}{\numberline {1.2.1}Program pro odvozen\IeC {\'\i } nedostupn\IeC {\'y}ch vzorc\IeC {\r u} z dat}{15}{subsection.38}
\contentsline {subsection}{\numberline {1.2.2}Odvozen\IeC {\'\i } vzorc\IeC {\r u} pro numerick\IeC {\'y} v\IeC {\'y}po\IeC {\v c}et}{15}{subsection.41}
\contentsline {chapter}{\numberline {2}V\IeC {\'y}sledky studentsk\IeC {\'e} pr\IeC {\'a}ce}{19}{chapter.53}
\contentsline {chapter}{\numberline {3}Z\IeC {\'a}v\IeC {\v e}r}{20}{chapter.54}
\contentsline {chapter}{Seznam symbol\r {u}, veli\v {c}in a zkratek}{22}{section*.57}
