\relax 
\providecommand\hyper@newdestlabel[2]{}
\@writefile{toc}{\contentsline {chapter}{\numberline {A}N\IeC {\v e}kter\IeC {\'e} p\IeC {\v r}\IeC {\'\i }kazy bal\IeC {\'\i }\IeC {\v c}ku \texttt  {thesis} }{20}{chapter.35}}
\@writefile{toa}{\contentsline {chapter}{\numberline {A}N\IeC {\v e}kter\IeC {\'e} p\IeC {\v r}\IeC {\'\i }kazy bal\IeC {\'\i }\IeC {\v c}ku \texttt  {thesis} }{20}{chapter.35}}
\@writefile{toc}{\contentsline {section}{\numberline {A.1}P\IeC {\v r}\IeC {\'\i }kazy pro sazbu veli\IeC {\v c}in a jednotek }{20}{section.36}}
\@writefile{toa}{\contentsline {section}{\numberline {A.1}P\IeC {\v r}\IeC {\'\i }kazy pro sazbu veli\IeC {\v c}in a jednotek }{20}{section.36}}
\@writefile{lot}{\contentsline {table}{\numberline {A.1}{\ignorespaces P\IeC {\v r}ehled p\IeC {\v r}\IeC {\'\i }kaz\IeC {\r u} pro matematick\IeC {\'e} prost\IeC {\v r}ed\IeC {\'\i } }}{20}{table.37}}
\@writefile{toc}{\contentsline {section}{\numberline {A.2}P\IeC {\v r}\IeC {\'\i }kazy pro sazbu symbol\IeC {\r u} }{20}{section.38}}
\@writefile{toa}{\contentsline {section}{\numberline {A.2}P\IeC {\v r}\IeC {\'\i }kazy pro sazbu symbol\IeC {\r u} }{20}{section.38}}
\@writefile{toc}{\contentsline {chapter}{\numberline {B}Druh\IeC {\'a} p\IeC {\v r}\IeC {\'\i }loha }{21}{chapter.40}}
\@writefile{toa}{\contentsline {chapter}{\numberline {B}Druh\IeC {\'a} p\IeC {\v r}\IeC {\'\i }loha }{21}{chapter.40}}
\@writefile{lof}{\contentsline {figure}{\numberline {B.1}{\ignorespaces Zlep\IeC {\v s}en\IeC {\'e} Wilsonovo proudov\IeC {\'e} zrcadlo.}}{21}{figure.41}}
\@writefile{toc}{\contentsline {chapter}{\numberline {C}P\IeC {\v r}\IeC {\'\i }klad sazby zdrojov\IeC {\'y}ch k\IeC {\'o}d\IeC {\r u} }{22}{chapter.42}}
\@writefile{toa}{\contentsline {chapter}{\numberline {C}P\IeC {\v r}\IeC {\'\i }klad sazby zdrojov\IeC {\'y}ch k\IeC {\'o}d\IeC {\r u} }{22}{chapter.42}}
\@writefile{toc}{\contentsline {section}{\numberline {C.1}Bal\IeC {\'\i }\IeC {\v c}ek \texttt  {listings} }{22}{section.43}}
\@writefile{toa}{\contentsline {section}{\numberline {C.1}Bal\IeC {\'\i }\IeC {\v c}ek \texttt  {listings} }{22}{section.43}}
\newlabel{lst:priklad.vypis.kodu.Matlab}{{C.1}{23}{Příklad Schur-Cohnova testu stability v~prostředí Matlab}{lstlisting.51}{}}
\@writefile{lol}{\contentsline {lstlisting}{\numberline {C.1}P\IeC {\v r}\IeC {\'\i }klad Schur-Cohnova testu stability v~prost\IeC {\v r}ed\IeC {\'\i } Matlab.}{23}{lstlisting.51}}
\newlabel{lst:priklad.vypis.kodu.C}{{C.2}{24}{Příklad implementace první kanonické formy v~jazyce C}{lstlisting.80}{}}
\@writefile{lol}{\contentsline {lstlisting}{\numberline {C.2}P\IeC {\v r}\IeC {\'\i }klad implementace prvn\IeC {\'\i } kanonick\IeC {\'e} formy v~jazyce C.}{24}{lstlisting.80}}
\@writefile{toc}{\contentsline {chapter}{\numberline {D}Obsah p\IeC {\v r}ilo\IeC {\v z}en\IeC {\'e}ho CD }{25}{chapter.107}}
\@writefile{toa}{\contentsline {chapter}{\numberline {D}Obsah p\IeC {\v r}ilo\IeC {\v z}en\IeC {\'e}ho CD }{25}{chapter.107}}
\@setckpt{text/prilohy}{
\setcounter{page}{26}
\setcounter{equation}{0}
\setcounter{enumi}{0}
\setcounter{enumii}{0}
\setcounter{enumiii}{0}
\setcounter{enumiv}{0}
\setcounter{footnote}{0}
\setcounter{mpfootnote}{0}
\setcounter{part}{0}
\setcounter{chapter}{4}
\setcounter{section}{0}
\setcounter{subsection}{0}
\setcounter{subsubsection}{0}
\setcounter{paragraph}{0}
\setcounter{subparagraph}{0}
\setcounter{figure}{0}
\setcounter{table}{0}
\setcounter{FancyVerbLine}{20}
\setcounter{linenumber}{1}
\setcounter{LN@truepage}{26}
\setcounter{FV@TrueTabGroupLevel}{0}
\setcounter{FV@TrueTabCounter}{0}
\setcounter{FV@HighlightLinesStart}{0}
\setcounter{FV@HighlightLinesStop}{0}
\setcounter{FancyVerbLineBreakLast}{3}
\setcounter{float@type}{16}
\setcounter{minted@FancyVerbLineTemp}{0}
\setcounter{minted@pygmentizecounter}{1}
\setcounter{listing}{0}
\setcounter{Item}{0}
\setcounter{Hfootnote}{4}
\setcounter{bookmark@seq@number}{18}
\setcounter{AM@survey}{0}
\setcounter{lstnumber}{27}
\setcounter{NAT@ctr}{4}
\setcounter{section@level}{0}
\setcounter{lstlisting}{0}
}
