\relax 
\providecommand\hyper@newdestlabel[2]{}
\citation{Masopust1994}
\@writefile{toc}{\contentsline {chapter}{\numberline {1}Teoretick\IeC {\'a} \IeC {\v c}\IeC {\'a}st diplomov\IeC {\'e} pr\IeC {\'a}ce}{11}{chapter.7}}
\@writefile{toc}{\contentsline {section}{\numberline {1.1}Teorie v\IeC {\'y}po\IeC {\v c}t\IeC {\r u} pilot}{11}{section.8}}
\@writefile{toc}{\contentsline {subsection}{\numberline {1.1.1}V\IeC {\'y}po\IeC {\v c}tov\IeC {\'a} \IeC {\'u}nosnost pilot hlouben\IeC {\'y}ch do stla\IeC {\v c}iteln\IeC {\'e}ho podlo\IeC {\v z}\IeC {\'\i } dle Masopusta}{11}{subsection.9}}
\newlabel{qsi}{{1.1}{11}{Výpočtová únosnost pilot hloubených do stlačitelného podloží dle Masopusta}{equation.10}{}}
\acronymused{qsi}
\acronymused{Di}
\acronymused{di}
\newlabel{Rsu}{{1.2}{11}{Výpočtová únosnost pilot hloubených do stlačitelného podloží dle Masopusta}{equation.11}{}}
\acronymused{Rsu}
\acronymused{m1}
\acronymused{m2}
\acronymused{pi}
\acronymused{di}
\acronymused{li}
\acronymused{qsi}
\newlabel{qp}{{1.3}{11}{Výpočtová únosnost pilot hloubených do stlačitelného podloží dle Masopusta}{equation.12}{}}
\acronymused{qp}
\acronymused{l}
\acronymused{dp}
\acronymused{qsi}
\newlabel{qs}{{1.4}{11}{Výpočtová únosnost pilot hloubených do stlačitelného podloží dle Masopusta}{equation.13}{}}
\acronymused{qs}
\acronymused{di}
\acronymused{li}
\acronymused{qsi}
\acronymused{di}
\acronymused{li}
\newlabel{beta}{{1.5}{11}{Výpočtová únosnost pilot hloubených do stlačitelného podloží dle Masopusta}{equation.14}{}}
\acronymused{qp}
\acronymused{qp}
\acronymused{qs}
\acronymused{l}
\acronymused{dp}
\newlabel{Ry}{{1.6}{11}{Výpočtová únosnost pilot hloubených do stlačitelného podloží dle Masopusta}{equation.15}{}}
\acronymused{Ry}
\acronymused{Rsu}
\newlabel{sy}{{1.7}{11}{Výpočtová únosnost pilot hloubených do stlačitelného podloží dle Masopusta}{equation.16}{}}
\acronymused{sy}
\acronymused{I}
\acronymused{Ry}
\acronymused{prumd}
\acronymused{Es}
\newlabel{I}{{1.8}{11}{Výpočtová únosnost pilot hloubených do stlačitelného podloží dle Masopusta}{equation.17}{}}
\acronymused{I}
\acronymused{I1}
\acronymused{Rk}
\acronymused{Es}
\newlabel{Es}{{1.9}{12}{Výpočtová únosnost pilot hloubených do stlačitelného podloží dle Masopusta}{equation.18}{}}
\acronymused{Es}
\acronymused{Esi}
\acronymused{li}
\acronymused{li}
\acronymused{Esi}
\acronymused{sy}
\acronymused{Ry}
\acronymused{Ry}
\newlabel{s}{{1.10}{12}{Výpočtová únosnost pilot hloubených do stlačitelného podloží dle Masopusta}{equation.19}{}}
\acronymused{sy}
\acronymused{Ry}
\acronymused{Rbu}
\newlabel{Rbu}{{1.11}{12}{Výpočtová únosnost pilot hloubených do stlačitelného podloží dle Masopusta}{equation.20}{}}
\acronymused{Rbu}
\acronymused{Rsu}
\acronymused{Rpu}
\newlabel{Rpu}{{1.12}{12}{Výpočtová únosnost pilot hloubených do stlačitelného podloží dle Masopusta}{equation.21}{}}
\acronymused{Rpu}
\acronymused{Ry}
\acronymused{sy}
\newlabel{s2vetev}{{1.13}{12}{Výpočtová únosnost pilot hloubených do stlačitelného podloží dle Masopusta}{equation.22}{}}
\acronymused{sy}
\acronymused{sy}
\acronymused{Rbu}
\acronymused{Ry}
\acronymused{Ry}
\acronymused{Id}
\acronymused{Id}
\acronymused{Id}
\acronymused{Ic}
\acronymused{Ic}
\@writefile{lot}{\contentsline {table}{\numberline {1.1}{\ignorespaces Regresn\IeC {\'\i } koeficienty pro jednotliv\IeC {\'e} typy hornin a zemin}}{13}{table.23}}
\newlabel{abcd}{{1.1}{13}{Regresní koeficienty pro jednotlivé typy hornin a zemin}{table.23}{}}
\@writefile{lot}{\contentsline {table}{\numberline {1.2}{\ignorespaces \acs {Esi} pro piloty v skaln\IeC {\'\i }ch a polo-skaln\IeC {\'\i }ch hornin\IeC {\'a}ch}}{13}{table.24}}
\acronymused{Esi}
\newlabel{Es_skalni}{{1.2}{13}{\zk {Esi} pro piloty v skalních a polo-skalních horninách}{table.24}{}}
\@writefile{lot}{\contentsline {table}{\numberline {1.3}{\ignorespaces \acs {Esi} pro piloty v nesoudr\IeC {\v z}n\IeC {\'y}ch zemin\IeC {\'a}ch}}{13}{table.25}}
\acronymused{Esi}
\newlabel{Es_nesoudrzne}{{1.3}{13}{\zk {Esi} pro piloty v nesoudržných zeminách}{table.25}{}}
\acronymused{Ic}
\@writefile{lot}{\contentsline {table}{\numberline {1.4}{\ignorespaces \acs {Esi} pro piloty v soudr\IeC {\v z}n\IeC {\'y}ch zemin\IeC {\'a}ch}}{13}{table.26}}
\acronymused{Esi}
\newlabel{Es_soudrzne}{{1.4}{13}{\zk {Esi} pro piloty v soudržných zeminách}{table.26}{}}
\@writefile{toc}{\contentsline {section}{\numberline {1.2}Program}{14}{section.27}}
\@writefile{toc}{\contentsline {subsection}{\numberline {1.2.1}Program pro odvozen\IeC {\'\i } nedostupn\IeC {\'y}ch vzorc\IeC {\r u} z dat}{14}{subsection.28}}
\@writefile{toc}{\contentsline {subsection}{\numberline {1.2.2}Odvozen\IeC {\'\i } vzorc\IeC {\r u} pro numerick\IeC {\'y} v\IeC {\'y}po\IeC {\v c}et}{14}{subsection.31}}
\newlabel{odvozenirovnic}{{1.2.2}{14}{Odvození vzorců pro numerický výpočet}{subsection.31}{}}
\citation{Davis1980}
\@writefile{lof}{\contentsline {figure}{\numberline {1.1}{\ignorespaces Ode\IeC {\v c}\IeC {\'\i }t\IeC {\'a}n\IeC {\'\i } bod\IeC {\r u} pomoc\IeC {\'\i } WebPlotDigitizeru pro stanoven\IeC {\'\i } {$R_k$}\cite  {Davis1980}}}{15}{figure.33}}
\newlabel{rk1}{{1.14}{15}{Odvození vzorců pro numerický výpočet}{equation.35}{}}
\newlabel{rk2}{{1.15}{15}{Odvození vzorců pro numerický výpočet}{equation.36}{}}
\@writefile{lof}{\contentsline {figure}{\numberline {1.2}{\ignorespaces Pr\IeC {\r u}b\IeC {\v e}h odvozen\IeC {\'y}ch funkc\IeC {\'\i } pro v\IeC {\'y}po\IeC {\v c}et {$R_k$}}}{16}{figure.34}}
\newlabel{rk5}{{1.16}{16}{Odvození vzorců pro numerický výpočet}{equation.37}{}}
\newlabel{rk10}{{1.17}{16}{Odvození vzorců pro numerický výpočet}{equation.38}{}}
\newlabel{rk25}{{1.18}{16}{Odvození vzorců pro numerický výpočet}{equation.39}{}}
\newlabel{rk50}{{1.19}{16}{Odvození vzorců pro numerický výpočet}{equation.40}{}}
\newlabel{rk100}{{1.20}{16}{Odvození vzorců pro numerický výpočet}{equation.41}{}}
\@setckpt{text/reseni}{
\setcounter{page}{18}
\setcounter{equation}{20}
\setcounter{enumi}{0}
\setcounter{enumii}{0}
\setcounter{enumiii}{0}
\setcounter{enumiv}{0}
\setcounter{footnote}{3}
\setcounter{mpfootnote}{0}
\setcounter{part}{0}
\setcounter{chapter}{1}
\setcounter{section}{2}
\setcounter{subsection}{2}
\setcounter{subsubsection}{0}
\setcounter{paragraph}{0}
\setcounter{subparagraph}{0}
\setcounter{figure}{2}
\setcounter{table}{4}
\setcounter{FancyVerbLine}{20}
\setcounter{linenumber}{1}
\setcounter{LN@truepage}{18}
\setcounter{FV@TrueTabGroupLevel}{0}
\setcounter{FV@TrueTabCounter}{0}
\setcounter{FV@HighlightLinesStart}{0}
\setcounter{FV@HighlightLinesStop}{0}
\setcounter{FancyVerbLineBreakLast}{3}
\setcounter{float@type}{16}
\setcounter{minted@FancyVerbLineTemp}{0}
\setcounter{minted@pygmentizecounter}{1}
\setcounter{listing}{0}
\setcounter{Item}{0}
\setcounter{Hfootnote}{3}
\setcounter{bookmark@seq@number}{7}
\setcounter{AM@survey}{0}
\setcounter{lstnumber}{1}
\setcounter{NAT@ctr}{0}
\setcounter{section@level}{2}
\setcounter{lstlisting}{0}
}
