\relax 
\providecommand\hyper@newdestlabel[2]{}
\@setckpt{text/teorie}{
\setcounter{page}{12}
\setcounter{equation}{0}
\setcounter{enumi}{0}
\setcounter{enumii}{0}
\setcounter{enumiii}{0}
\setcounter{enumiv}{0}
\setcounter{footnote}{0}
\setcounter{mpfootnote}{0}
\setcounter{part}{0}
\setcounter{chapter}{1}
\setcounter{section}{1}
\setcounter{subsection}{1}
\setcounter{subsubsection}{0}
\setcounter{paragraph}{0}
\setcounter{subparagraph}{0}
\setcounter{figure}{0}
\setcounter{table}{0}
\setcounter{FancyVerbLine}{0}
\setcounter{linenumber}{1}
\setcounter{LN@truepage}{12}
\setcounter{FV@TrueTabGroupLevel}{0}
\setcounter{FV@TrueTabCounter}{0}
\setcounter{FV@HighlightLinesStart}{0}
\setcounter{FV@HighlightLinesStop}{0}
\setcounter{FancyVerbLineBreakLast}{0}
\setcounter{float@type}{16}
\setcounter{minted@FancyVerbLineTemp}{0}
\setcounter{minted@pygmentizecounter}{0}
\setcounter{listing}{0}
\setcounter{Item}{0}
\setcounter{Hfootnote}{1}
\setcounter{bookmark@seq@number}{4}
\setcounter{AM@survey}{0}
\setcounter{lstnumber}{1}
\setcounter{NAT@ctr}{0}
\setcounter{section@level}{2}
\setcounter{lstlisting}{0}
}
