25.425231038199165, 2.95321139513089
30.68698178990676, 2.8012212592877708
33.3642375089423, 2.7360801668581156
38.61676829891803, 2.6130454586455603
44.70578671542735, 2.500856106185796
46.61183763972078, 2.4646704413867044
50.67602785363807, 2.397119269900874
53.956362743215294, 2.3476609308145884
57.4490386043236, 2.2982025917283035
61.16925744912699, 2.249949292170106
65.13193719527699, 2.2029010321399967
69.35463168735377, 2.158262851166063
74.65531558258405, 2.1244614062058065
78.6390789636384, 2.0689864892181955
83.7414699500548, 2.026758387300438
88.24686322967511, 1.992371662054365
96.29404005138692, 1.9314453347266463
104.34639715298808, 1.8765499515321096
162.16985735360026, 1.624937180883012
172.7496228885844, 1.5995796323584845
271.6836643984606, 1.4112228171948875
522.8477906867026, 1.2299324641566585
614.9574856454007, 1.203289425205649
673.999644312285, 1.1863441674067672
781.6696669870968, 1.164532779553594
916.2153208439564, 1.1427127719613075
1081.5991230523098, 1.1232970969324538
1232.5876921616082, 1.1099353520077524
1463.4598473786898, 1.094612214180204
1676.0623756969997, 1.0819694704274352
1964.8604071943498, 1.0679822197677198
2138.80279287134, 1.0624905839784153
2605.061748268061, 1.049315829927552
2971.1988869897336, 1.0423402198524419
7398.550658562325, 1.0060502562100755
28.06693511228795, 2.880256035620114
217.5542681887083, 1.4921659765109005
386.96931374656504, 1.2965217272695906
4207.403958788843, 1.029861907333249
