80.95488549035224, 3.00027258476967
86.1976111283047, 2.9522201251328206
94.68651783534634, 2.8701998595708216
99.39868684273019, 2.820753013470021
105.11403995748404, 2.7845558556854453
113.0804171337744, 2.7206284225229913
130.88733937875958, 2.599401273602568
148.36317553460717, 2.494459397789558
156.31178563749808, 2.449227316790694
166.43800872505793, 2.402179056760585
175.36124928391357, 2.3587545350538526
209.47200055343666, 2.2200284537588137
223.04205990341256, 2.172980193728704
237.48556138916268, 2.124726894170507
252.88244677611402, 2.0800887131965737
269.27755739508456, 2.0354505322226397
286.75609958201915, 1.9944274698329698
305.3400660111887, 1.9485842493309482
325.1516459678622, 1.9063561474131903
346.26516742708213, 1.8665381245516082
372.6520927755991, 1.8221925837205828
401.0545936093183, 1.7784495626536017
431.6269937096129, 1.735309061350664
471.1130068936586, 1.6879394287139342
505.3160789592144, 1.652935817471961
555.4839503474519, 1.6076692575166425
636.8945779739249, 1.544292625683551
707.6233633874004, 1.5008250052812508
786.2067628281794, 1.4573573848789503
911.2024555638301, 1.4022869060505518
1021.1602662620783, 1.365319603308635
1186.0343216545255, 1.3106089123908398
1374.9112403900813, 1.267106813032085
1594.0377960124279, 1.2290273915497254
1809.6486499057212, 1.2018105652983844
2054.570001141349, 1.1782088576313068
2332.556148159539, 1.1527995906720974
2642.877215622636, 1.1338992611123853
3414.7752789472706, 1.0994675408281394
3853.0268511860504, 1.0851498093708063
4402.960444607423, 1.0673271195950829
9971.312882303035, 1.0201876913440477
7174.781203469729, 1.0339153856460972
5624.195090117479, 1.0475735428432809
