10.133769720590303
27.35101705545128
32.39637422696269
35.2580159949449
42.35933002689742
48.781995620163535
54.421308405538824
63.11950755874342
73.20794650451263
83.13089996927054
117.93324580684057
12.219050355267123
15.879958714447445
21.612690324417827
173.55296260820032
299.70812543684616
462.8091042789651
