80.95488549035224
86.1976111283047
94.68651783534634
99.39868684273019
105.11403995748404
113.0804171337744
130.88733937875958
148.36317553460717
156.31178563749808
166.43800872505793
175.36124928391357
209.47200055343666
223.04205990341256
237.48556138916268
252.88244677611402
269.27755739508456
286.75609958201915
305.3400660111887
325.1516459678622
346.26516742708213
372.6520927755991
401.0545936093183
431.6269937096129
471.1130068936586
505.3160789592144
555.4839503474519
636.8945779739249
707.6233633874004
786.2067628281794
911.2024555638301
1021.1602662620783
1186.0343216545255
1374.9112403900813
1594.0377960124279
1809.6486499057212
2054.570001141349
2332.556148159539
2642.877215622636
3414.7752789472706
3853.0268511860504
4402.960444607423
9971.312882303035
7174.781203469729
5624.195090117479
