\relax 
\providecommand\hyper@newdestlabel[2]{}
\bibcite{Masopust1994}{{1}{}{{}}{{}}}
\bibcite{Davis1980}{{2}{}{{}}{{}}}
\bibcite{Jirousek2006}{{3}{}{{}}{{}}}
\@setckpt{text/literatura}{
\setcounter{page}{22}
\setcounter{equation}{0}
\setcounter{enumi}{0}
\setcounter{enumii}{0}
\setcounter{enumiii}{0}
\setcounter{enumiv}{0}
\setcounter{footnote}{0}
\setcounter{mpfootnote}{0}
\setcounter{part}{0}
\setcounter{chapter}{3}
\setcounter{section}{0}
\setcounter{subsection}{0}
\setcounter{subsubsection}{0}
\setcounter{paragraph}{0}
\setcounter{subparagraph}{0}
\setcounter{figure}{0}
\setcounter{table}{0}
\setcounter{FancyVerbLine}{20}
\setcounter{linenumber}{1}
\setcounter{LN@truepage}{22}
\setcounter{FV@TrueTabGroupLevel}{0}
\setcounter{FV@TrueTabCounter}{0}
\setcounter{FV@HighlightLinesStart}{0}
\setcounter{FV@HighlightLinesStop}{0}
\setcounter{FancyVerbLineBreakLast}{3}
\setcounter{float@type}{8}
\setcounter{minted@FancyVerbLineTemp}{0}
\setcounter{minted@pygmentizecounter}{1}
\setcounter{listing}{0}
\setcounter{ContinuedFloat}{0}
\setcounter{Item}{0}
\setcounter{Hfootnote}{3}
\setcounter{bookmark@seq@number}{11}
\setcounter{AM@survey}{0}
\setcounter{NAT@ctr}{3}
\setcounter{section@level}{0}
}
