\relax 
\providecommand\hyper@newdestlabel[2]{}
\citation{Masopust1994}
\@writefile{toc}{\contentsline {chapter}{\numberline {1}Teoretick\IeC {\'a} \IeC {\v c}\IeC {\'a}st diplomov\IeC {\'e} pr\IeC {\'a}ce}{11}{chapter.7}}
\@writefile{toc}{\contentsline {section}{\numberline {1.1}Teorie v\IeC {\'y}po\IeC {\v c}t\IeC {\r u} pilot}{11}{section.8}}
\@writefile{toc}{\contentsline {subsection}{\numberline {1.1.1}V\IeC {\'y}po\IeC {\v c}et piloty dle EN 1997}{11}{subsection.9}}
\@writefile{toc}{\contentsline {subsection}{\numberline {1.1.2}V\IeC {\'y}po\IeC {\v c}tov\IeC {\'a} \IeC {\'u}nosnost pilot hlouben\IeC {\'y}ch do stla\IeC {\v c}iteln\IeC {\'e}ho podlo\IeC {\v z}\IeC {\'\i } dle Masopusta}{11}{subsection.10}}
\newlabel{qsi}{{1.1}{11}{Výpočtová únosnost pilot hloubených do stlačitelného podloží dle Masopusta}{equation.11}{}}
\acronymused{qsi}
\acronymused{Di}
\acronymused{di}
\newlabel{Rsu}{{1.2}{11}{Výpočtová únosnost pilot hloubených do stlačitelného podloží dle Masopusta}{equation.12}{}}
\acronymused{Rsu}
\acronymused{m1}
\acronymused{m2}
\acronymused{pi}
\acronymused{di}
\acronymused{li}
\acronymused{qsi}
\newlabel{qp}{{1.3}{11}{Výpočtová únosnost pilot hloubených do stlačitelného podloží dle Masopusta}{equation.13}{}}
\acronymused{qp}
\acronymused{l}
\acronymused{dp}
\acronymused{qsi}
\newlabel{qs}{{1.4}{11}{Výpočtová únosnost pilot hloubených do stlačitelného podloží dle Masopusta}{equation.14}{}}
\acronymused{qs}
\acronymused{di}
\acronymused{li}
\acronymused{qsi}
\acronymused{di}
\acronymused{li}
\newlabel{beta}{{1.5}{11}{Výpočtová únosnost pilot hloubených do stlačitelného podloží dle Masopusta}{equation.15}{}}
\acronymused{qp}
\acronymused{qp}
\acronymused{qs}
\acronymused{l}
\acronymused{dp}
\newlabel{Ry}{{1.6}{11}{Výpočtová únosnost pilot hloubených do stlačitelného podloží dle Masopusta}{equation.16}{}}
\acronymused{Ry}
\acronymused{Rsu}
\newlabel{sy}{{1.7}{11}{Výpočtová únosnost pilot hloubených do stlačitelného podloží dle Masopusta}{equation.17}{}}
\acronymused{sy}
\acronymused{I}
\acronymused{Ry}
\acronymused{prumd}
\acronymused{Es}
\newlabel{I}{{1.8}{12}{Výpočtová únosnost pilot hloubených do stlačitelného podloží dle Masopusta}{equation.18}{}}
\acronymused{I}
\acronymused{I1}
\acronymused{Rk}
\acronymused{Es}
\newlabel{Es}{{1.9}{12}{Výpočtová únosnost pilot hloubených do stlačitelného podloží dle Masopusta}{equation.19}{}}
\acronymused{Es}
\acronymused{Esi}
\acronymused{li}
\acronymused{li}
\acronymused{Esi}
\acronymused{sy}
\acronymused{Ry}
\acronymused{Ry}
\newlabel{s}{{1.10}{12}{Výpočtová únosnost pilot hloubených do stlačitelného podloží dle Masopusta}{equation.20}{}}
\acronymused{sy}
\acronymused{Ry}
\acronymused{Rbu}
\newlabel{Rbu}{{1.11}{12}{Výpočtová únosnost pilot hloubených do stlačitelného podloží dle Masopusta}{equation.21}{}}
\acronymused{Rbu}
\acronymused{Rsu}
\acronymused{Rpu}
\newlabel{Rpu}{{1.12}{12}{Výpočtová únosnost pilot hloubených do stlačitelného podloží dle Masopusta}{equation.22}{}}
\acronymused{Rpu}
\acronymused{Ry}
\acronymused{sy}
\newlabel{s2vetev}{{1.13}{12}{Výpočtová únosnost pilot hloubených do stlačitelného podloží dle Masopusta}{equation.23}{}}
\acronymused{sy}
\acronymused{sy}
\acronymused{Rbu}
\acronymused{Ry}
\acronymused{Ry}
\acronymused{Id}
\acronymused{Id}
\acronymused{Id}
\acronymused{Ic}
\acronymused{Ic}
\@writefile{lot}{\contentsline {table}{\numberline {1.1}{\ignorespaces Regresn\IeC {\'\i } koeficienty pro jednotliv\IeC {\'e} typy hornin a zemin\relax }}{13}{table.caption.24}}
\providecommand*\caption@xref[2]{\@setref\relax\@undefined{#1}}
\newlabel{abcd}{{1.1}{13}{Regresní koeficienty pro jednotlivé typy hornin a zemin\relax }{table.caption.24}{}}
\@writefile{lot}{\contentsline {table}{\numberline {1.2}{\ignorespaces \acs {Esi} pro piloty v skaln\IeC {\'\i }ch a polo-skaln\IeC {\'\i }ch hornin\IeC {\'a}ch\relax }}{13}{table.caption.24}}
\acronymused{Esi}
\newlabel{Es_skalni}{{1.2}{13}{\zk {Esi} pro piloty v skalních a polo-skalních horninách\relax }{table.caption.24}{}}
\@writefile{lot}{\contentsline {table}{\numberline {1.3}{\ignorespaces \acs {Esi} pro piloty v nesoudr\IeC {\v z}n\IeC {\'y}ch zemin\IeC {\'a}ch\relax }}{13}{table.caption.24}}
\acronymused{Esi}
\newlabel{Es_nesoudrzne}{{1.3}{13}{\zk {Esi} pro piloty v nesoudržných zeminách\relax }{table.caption.24}{}}
\acronymused{Ic}
\@writefile{lot}{\contentsline {table}{\numberline {1.4}{\ignorespaces \acs {Esi} pro piloty v soudr\IeC {\v z}n\IeC {\'y}ch zemin\IeC {\'a}ch\relax }}{13}{table.caption.24}}
\acronymused{Esi}
\newlabel{Es_soudrzne}{{1.4}{13}{\zk {Esi} pro piloty v soudržných zeminách\relax }{table.caption.24}{}}
\citation{Jirousek2006}
\@writefile{toc}{\contentsline {subsection}{\numberline {1.1.3}Prutov\IeC {\'a} teorie MKP}{14}{subsection.25}}
\@writefile{toc}{\contentsline {subsubsection}{Euler-Bernoulliho oh\IeC {\'y}ban\IeC {\'y} prut}{14}{section*.26}}
\acronymused{vij}
\acronymused{phiij}
\@writefile{lof}{\contentsline {figure}{\numberline {1.1}{\ignorespaces Model uzlov\IeC {\'y}ch nezn\IeC {\'a}m\IeC {\'y}ch pro oh\IeC {\'y}ban\IeC {\'y} prut \cite  {Jirousek2006}\relax }}{14}{figure.caption.27}}
\newlabel{Jirousek1}{{1.1}{14}{Model uzlových neznámých pro ohýbaný prut \cite {Jirousek2006}\relax }{figure.caption.27}{}}
\newlabel{N1}{{1.14}{14}{Euler-Bernoulliho ohýbaný prut}{equation.28}{}}
\newlabel{okrajpodm1}{{1.15}{14}{Euler-Bernoulliho ohýbaný prut}{equation.29}{}}
\newlabel{okrajpodm2}{{1.16}{14}{Euler-Bernoulliho ohýbaný prut}{equation.30}{}}
\newlabel{okrajpodm3}{{1.17}{14}{Euler-Bernoulliho ohýbaný prut}{equation.31}{}}
\newlabel{okrajpodm4}{{1.18}{14}{Euler-Bernoulliho ohýbaný prut}{equation.32}{}}
\newlabel{okrajrov1}{{1.19}{14}{Euler-Bernoulliho ohýbaný prut}{equation.33}{}}
\newlabel{okrajrov2}{{1.20}{14}{Euler-Bernoulliho ohýbaný prut}{equation.34}{}}
\newlabel{okrajrov3}{{1.21}{14}{Euler-Bernoulliho ohýbaný prut}{equation.35}{}}
\newlabel{okrajro41}{{1.22}{14}{Euler-Bernoulliho ohýbaný prut}{equation.36}{}}
\citation{Davis1980}
\@writefile{toc}{\contentsline {section}{\numberline {1.2}Program}{15}{section.37}}
\@writefile{toc}{\contentsline {subsection}{\numberline {1.2.1}Program pro odvozen\IeC {\'\i } nedostupn\IeC {\'y}ch vzorc\IeC {\r u} z dat}{15}{subsection.38}}
\@writefile{toc}{\contentsline {subsection}{\numberline {1.2.2}Odvozen\IeC {\'\i } vzorc\IeC {\r u} pro numerick\IeC {\'y} v\IeC {\'y}po\IeC {\v c}et}{15}{subsection.41}}
\newlabel{odvozenirovnic}{{1.2.2}{15}{Odvození vzorců pro numerický výpočet}{subsection.41}{}}
\@writefile{lof}{\contentsline {figure}{\numberline {1.2}{\ignorespaces Ode\IeC {\v c}\IeC {\'\i }t\IeC {\'a}n\IeC {\'\i } bod\IeC {\r u} pomoc\IeC {\'\i } WebPlotDigitizeru pro stanoven\IeC {\'\i } {$R_k$}\cite  {Davis1980}\relax }}{15}{figure.caption.44}}
\@writefile{lol}{\contentsline {listing}{\numberline {1.1}{\ignorespaces Example of a listing.\relax }}{16}{listing.42}}
\newlabel{lst:example}{{1.1}{16}{Example of a listing.\relax }{listing.42}{}}
\newlabel{rk1}{{1.23}{16}{Odvození vzorců pro numerický výpočet}{equation.46}{}}
\@writefile{lof}{\contentsline {figure}{\numberline {1.3}{\ignorespaces Pr\IeC {\r u}b\IeC {\v e}h odvozen\IeC {\'y}ch funkc\IeC {\'\i } pro v\IeC {\'y}po\IeC {\v c}et {$R_k$}\relax }}{17}{figure.caption.45}}
\newlabel{rk2}{{1.24}{17}{Odvození vzorců pro numerický výpočet}{equation.47}{}}
\newlabel{rk5}{{1.25}{17}{Odvození vzorců pro numerický výpočet}{equation.48}{}}
\newlabel{rk10}{{1.26}{17}{Odvození vzorců pro numerický výpočet}{equation.49}{}}
\newlabel{rk25}{{1.27}{17}{Odvození vzorců pro numerický výpočet}{equation.50}{}}
\newlabel{rk50}{{1.28}{17}{Odvození vzorců pro numerický výpočet}{equation.51}{}}
\newlabel{rk100}{{1.29}{18}{Odvození vzorců pro numerický výpočet}{equation.52}{}}
\@setckpt{text/reseni}{
\setcounter{page}{19}
\setcounter{equation}{29}
\setcounter{enumi}{0}
\setcounter{enumii}{0}
\setcounter{enumiii}{0}
\setcounter{enumiv}{0}
\setcounter{footnote}{3}
\setcounter{mpfootnote}{0}
\setcounter{part}{0}
\setcounter{chapter}{1}
\setcounter{section}{2}
\setcounter{subsection}{2}
\setcounter{subsubsection}{0}
\setcounter{paragraph}{0}
\setcounter{subparagraph}{0}
\setcounter{figure}{3}
\setcounter{table}{4}
\setcounter{FancyVerbLine}{20}
\setcounter{linenumber}{1}
\setcounter{LN@truepage}{19}
\setcounter{FV@TrueTabGroupLevel}{0}
\setcounter{FV@TrueTabCounter}{0}
\setcounter{FV@HighlightLinesStart}{0}
\setcounter{FV@HighlightLinesStop}{0}
\setcounter{FancyVerbLineBreakLast}{3}
\setcounter{float@type}{8}
\setcounter{minted@FancyVerbLineTemp}{0}
\setcounter{minted@pygmentizecounter}{1}
\setcounter{listing}{1}
\setcounter{ContinuedFloat}{0}
\setcounter{Item}{0}
\setcounter{Hfootnote}{3}
\setcounter{bookmark@seq@number}{9}
\setcounter{AM@survey}{0}
\setcounter{NAT@ctr}{0}
\setcounter{section@level}{2}
}
