\relax 
\providecommand\hyper@newdestlabel[2]{}
\@writefile{toc}{\contentsline {chapter}{Seznam symbol\r {u}, veli\v {c}in a zkratek}{22}{section*.57}}
\newacro{qsi}[\AC@hyperlink{qsi}{\ensuremath  {q_\textind  {si}}}]{pl\IeC {\'a}\IeC {\v s}\IeC {\v t}ov\IeC {\'e} t\IeC {\v r}en\IeC {\'\i } i-t\IeC {\'e} vrstvy}
\newacro{abcd}[\AC@hyperlink{abcd}{\ensuremath  {a,b,c,d}}]{regresn\IeC {\'\i } koeficienty}
\newacro{Di}[\AC@hyperlink{Di}{\ensuremath  {D_\textind  {i}}}]{hloubka od hlavy piloty do st\IeC {\v r}edu i-t\IeC {\'e} vrstvy}
\newacro{di}[\AC@hyperlink{di}{\ensuremath  {d_\textind  {i}}}]{pr\IeC {\r u}m\IeC {\v e}r piloty v i-t\IeC {\'e} vrstv\IeC {\v e}}
\newacro{l}[\AC@hyperlink{l}{\ensuremath  {l}}]{celkov\IeC {\'a} d\IeC {\'e}lka piloty}
\newacro{li}[\AC@hyperlink{li}{\ensuremath  {l_\textind  {i}}}]{mocnost i-t\IeC {\'e} vrstvy}
\newacro{pi}[\AC@hyperlink{pi}{\ensuremath  {\pi }}]{Ludolfovo \IeC {\v c}\IeC {\'\i }slo \IeC {\v c}i Archim\IeC {\'e}dova konstanta}
\newacro{Rsu}[\AC@hyperlink{Rsu}{\ensuremath  {R_\textind  {su}}}]{v\IeC {\'y}po\IeC {\v c}tov\IeC {\'a} hodnota mezn\IeC {\'\i } s\IeC {\'\i }ly na pl\IeC {\'a}\IeC {\v s}ti}
\newacro{m1}[\AC@hyperlink{m1}{\ensuremath  {m_1}}]{koeficient podle druhu zat\IeC {\'\i }\IeC {\v z}en\IeC {\'\i }}
\newacro{m2}[\AC@hyperlink{m2}{\ensuremath  {m_2}}]{koeficient vlivu eventu\IeC {\'a}ln\IeC {\'\i } ochrany d\IeC {\v r}\IeC {\'\i }ku piloty}
\newacro{qp}[\AC@hyperlink{qp}{\ensuremath  {q_\textind  {p}}}]{nap\IeC {\v e}t\IeC {\'\i } na pat\IeC {\v e} piloty}
\newacro{dp}[\AC@hyperlink{dp}{\ensuremath  {d_\textind  {p}}}]{pr\IeC {\r u}m\IeC {\v e}r paty piloty}
\newacro{qs}[\AC@hyperlink{qs}{\ensuremath  {\overline {q_\textind  {s}}}}]{pr\IeC {\r u}m\IeC {\v e}rn\IeC {\'e} pl\IeC {\'a}\IeC {\v s}\IeC {\v t}ov\IeC {\'e} t\IeC {\v r}en\IeC {\'\i }}
\newacro{beta}[\AC@hyperlink{beta}{\ensuremath  {\beta }}]{koeficient p\IeC {\v r}enosu zat\IeC {\'\i }\IeC {\v z}en\IeC {\'\i } do paty piloty}
\newacro{Ry}[\AC@hyperlink{Ry}{\ensuremath  {R_\textind  {y}}}]{zat\IeC {\'\i }\IeC {\v z}en\IeC {\'\i } na mezi pln\IeC {\'e}ho pl\IeC {\'a}\IeC {\v s}\IeC {\v t}ov\IeC {\'e}ho t\IeC {\v r}en\IeC {\'\i }}
\newacro{sy}[\AC@hyperlink{sy}{\ensuremath  {s_\textind  {y}}}]{sed\IeC {\'a}n\IeC {\'\i } na mezi pln\IeC {\'e}ho pl\IeC {\'a}\IeC {\v s}\IeC {\v t}ov\IeC {\'e}ho t\IeC {\v r}en\IeC {\'\i }}
\newacro{I}[\AC@hyperlink{I}{\ensuremath  {I}}]{p\IeC {\v r}\IeC {\'\i }\IeC {\v c}inkov\IeC {\'y} koeficient sed\IeC {\'a}n\IeC {\'\i } piloty}
\newacro{prumd}[\AC@hyperlink{prumd}{\ensuremath  {\overline {d}}}]{v\IeC {\'a}\IeC {\v z}en\IeC {\'y} pr\IeC {\r u}m\IeC {\v e}r profil\IeC {\r u} piloty}
\newacro{Es}[\AC@hyperlink{Es}{\ensuremath  {\overline {E_\textind  {s}}}}]{pr\IeC {\r u}m\IeC {\v e}rn\IeC {\'a} hodnota se\IeC {\v c}nov\IeC {\'e}ho modulu deformace zemin pod\IeC {\'e}l d\IeC {\v r}\IeC {\'\i }ku piloty}
\newacro{Esi}[\AC@hyperlink{Esi}{\ensuremath  {E_\textind  {si}}}]{Hodnota se\IeC {\v c}nov\IeC {\'e}ho modulu deformace zemin pod\IeC {\'e}l d\IeC {\v r}\IeC {\'\i }ku piloty}
\newacro{I1}[\AC@hyperlink{I1}{\ensuremath  {I_\textind  {1}}}]{z\IeC {\'a}kladn\IeC {\'\i } p\IeC {\v r}\IeC {\'\i }\IeC {\v c}inkov\IeC {\'y} koeficient}
\newacro{Rk}[\AC@hyperlink{Rk}{\ensuremath  {R_\textind  {k}}}]{korek\IeC {\v c}n\IeC {\'\i } sou\IeC {\v c}initel tuhosti piloty}
\newacro{Rbu}[\AC@hyperlink{Rbu}{\ensuremath  {R_\textind  {bu}}}]{\IeC {\'u}nosnost piloty p\IeC {\v r}i mezn\IeC {\'\i }m sednut\IeC {\'\i } 25 mm}
\newacro{Rpu}[\AC@hyperlink{Rpu}{\ensuremath  {R_\textind  {pu}}}]{Jak to p\IeC {\v r}esn\IeC {\v e} nazvat?}
\newacro{Id}[\AC@hyperlink{Id}{\ensuremath  {I_\textind  {d}}}]{index relativn\IeC {\'\i } ulehlosti}
\newacro{Ic}[\AC@hyperlink{Ic}{\ensuremath  {I_\textind  {c}}}]{stupe\IeC {\v n} konzistence}
\newacro{Ip}[\AC@hyperlink{Ip}{\ensuremath  {I_\textind  {p}}}]{index plasticity}
\newacro{vij}[\AC@hyperlink{vij}{\ensuremath  {v_\textind  {ij}}}]{posunut\IeC {\'\i } ve sm\IeC {\v e}ru osy y}
\newacro{phiij}[\AC@hyperlink{phiij}{\ensuremath  {\phi _\textind  {ij}}}]{pooto\IeC {\v c}en\IeC {\'\i } koncov\IeC {\'y}ch pr\IeC {\r u}\IeC {\v r}ez\IeC {\r u}}
\@setckpt{text/zkratky}{
\setcounter{page}{24}
\setcounter{equation}{0}
\setcounter{enumi}{0}
\setcounter{enumii}{0}
\setcounter{enumiii}{0}
\setcounter{enumiv}{0}
\setcounter{footnote}{0}
\setcounter{mpfootnote}{0}
\setcounter{part}{0}
\setcounter{chapter}{3}
\setcounter{section}{0}
\setcounter{subsection}{0}
\setcounter{subsubsection}{0}
\setcounter{paragraph}{0}
\setcounter{subparagraph}{0}
\setcounter{figure}{0}
\setcounter{table}{0}
\setcounter{FancyVerbLine}{20}
\setcounter{linenumber}{1}
\setcounter{LN@truepage}{24}
\setcounter{FV@TrueTabGroupLevel}{0}
\setcounter{FV@TrueTabCounter}{0}
\setcounter{FV@HighlightLinesStart}{0}
\setcounter{FV@HighlightLinesStop}{0}
\setcounter{FancyVerbLineBreakLast}{3}
\setcounter{float@type}{8}
\setcounter{minted@FancyVerbLineTemp}{0}
\setcounter{minted@pygmentizecounter}{1}
\setcounter{listing}{0}
\setcounter{ContinuedFloat}{0}
\setcounter{Item}{0}
\setcounter{Hfootnote}{3}
\setcounter{bookmark@seq@number}{12}
\setcounter{AM@survey}{0}
\setcounter{NAT@ctr}{3}
\setcounter{section@level}{0}
}
